{
  "version": 0,
  "apiKey": "s#k#-#M#l#f#F#I#8#P#Q#n#w#j#a#c#S#k#v#5#l#A#Z#T#3#B#l#b#k#F#J#O#P#P#U#8#P#v#T#G#Y#x#p#8#F#d#S#U#Z#2#P",
  "topics": [
    {
      "topic_title": "Fun",
      "suggestions": [
        {
          "title": "Jokes",
          "subtitle": "Laugh Out Loud",
          "body": "Share your favorite jokes and funny anecdotes. Let's brighten each other's day with laughter and humor. Remember to keep it light-hearted and enjoyable for everyone!"
        },
        {
          "title": "Jokes",
          "subtitle": "Pun-tastic Fun",
          "body": "Indulge in the world of puns and wordplay. Share your best puns, play with language, and enjoy the cleverness of word-based humor. Get ready for some pun-tastic fun!"
        },
        {
          "title": "Jokes",
          "subtitle": "Silly One-Liners",
          "body": "Time for some quick laughs! Share your favorite one-liner jokes that pack a punch in just a single sentence. Let's see who can come up with the wittiest and funniest lines!"
        },
        {
          "title": "Memes",
          "subtitle": "Meme Mania",
          "body": "Unleash your creativity with memes! Share funny and relatable memes that bring a smile to everyone's face. From popular memes to original creations, let's keep the laughter going."
        },
        {
          "title": "Memes",
          "subtitle": "Dank Memes",
          "body": "Dive into the world of dank memes. Share hilarious and edgy memes that are sure to make you burst out laughing. Get ready for some meme madness!"
        },
        {
          "title": "Memes",
          "subtitle": "Classic Memes",
          "body": "Take a trip down memory lane with classic memes. Share timeless and nostalgic memes that have stood the test of time. Let's relive the funny moments of internet culture!"
        },
        {
          "title": "Games",
          "subtitle": "Game Night Extravaganza",
          "body": "Discuss your favorite games and gaming experiences. Whether it's video games, board games, or outdoor activities, let's dive into the world of gaming and share recommendations, strategies, and memorable moments."
        },
        {
          "title": "Games",
          "subtitle": "Virtual Gaming Communities",
          "body": "Explore the world of online gaming communities. Share your experiences, meet fellow gamers, and discuss multiplayer games, esports, and the excitement of playing with others from around the globe."
        },
        {
          "title": "Games",
          "subtitle": "Indie Game Showcase",
          "body": "Discover hidden gems in the world of indie games. Share your favorite indie titles, discuss unique gameplay mechanics, and support independent game developers. Let's celebrate creativity and innovation in gaming!"
        },
        {
          "title": "Funny Videos",
          "subtitle": "Hilarious Video Clips",
          "body": "Share funny videos that never fail to make you laugh. From comedy sketches to cute animal videos, let's enjoy some hilarious moments together. Remember to keep it family-friendly and positive."
        },
        {
          "title": "Funny Videos",
          "subtitle": "Viral Fails and Bloopers",
          "body": "Get ready for some laughter at the expense of funny fails and bloopers. Share viral videos showcasing hilarious mishaps and amusing moments caught on camera. Let's enjoy some good-natured humor!"
        },
        {
          "title": "Funny Videos",
          "subtitle": "Stand-Up Comedy",
          "body": "Share your favorite stand-up comedy clips or discuss your favorite comedians. Let's appreciate the art of stand-up comedy, share laughs, and recommend hilarious performances that are worth watching."
        },
        {
          "title": "Trivia",
          "subtitle": "Test Your Knowledge",
          "body": "Engage in exciting trivia challenges. Share interesting facts, trivia questions, and quiz each other on various topics. Let's see who can be the ultimate trivia master!"
        },
        {
          "title": "Trivia",
          "subtitle": "Movie Trivia",
          "body": "Delve into the world of movie trivia. Share interesting tidbits about films, iconic quotes, and challenge others with movie-related questions. Let's test our knowledge of the silver screen!"
        },
        {
          "title": "Trivia",
          "subtitle": "Geography Trivia",
          "body": "Explore the world through geography trivia. Share fascinating facts about countries, landmarks, and cultures. Let's broaden our knowledge and have fun while discovering interesting tidbits about the world we live in."
        }
      ]
    },
    {
      "topic_title": "Education",
      "suggestions": [
        {
          "title": "Science",
          "subtitle": "Discussion on Scientific Discoveries",
          "body": "Discuss the impact of scientific discoveries on society. How has science shaped our understanding of the world? Share your thoughts and insights on the role of science in education and everyday life."
        },
        {
          "title": "Science",
          "subtitle": "Exploring the Frontiers of Research",
          "body": "Delve into the latest frontiers of scientific research. From space exploration to nanotechnology, discuss cutting-edge discoveries and emerging technologies. Share your thoughts on the future of science and its impact on society."
        },
        {
          "title": "Science",
          "subtitle": "The Science of Everyday Life",
          "body": "Uncover the science behind everyday phenomena. Discuss the principles of physics, chemistry, and biology that govern our daily lives. From the mechanics of motion to the chemistry of cooking, share interesting insights and practical applications."
        },
        {
          "title": "Biology",
          "subtitle": "Exploring the Intricacies of Life",
          "body": "Explore the fascinating world of biology. From cells to ecosystems, discuss the intricacies of life and the natural world. Share interesting facts or discuss recent breakthroughs in biological research."
        },
        {
          "title": "Biology",
          "subtitle": "Genetics and DNA",
          "body": "Dive into the world of genetics and DNA. Discuss the principles of heredity, genetic variations, and the role of DNA in shaping living organisms. Share insights on genetic engineering, biotechnology, and ethical considerations."
        },
        {
          "title": "Biology",
          "subtitle": "Ecology and Conservation",
          "body": "Delve into the study of ecology and conservation. Discuss ecosystems, biodiversity, and the delicate balance of nature. Explore the impact of human activities on the environment and share thoughts on sustainable practices and conservation efforts."
        },
        {
          "title": "Physics",
          "subtitle": "Unraveling the Mysteries of the Universe",
          "body": "Dive into the wonders of physics. Discuss the fundamental laws of the universe, delve into the realm of quantum mechanics, or explore mind-bending theories such as string theory. Let's unravel the mysteries of the cosmos together."
        },
        {
          "title": "Physics",
          "subtitle": "The Physics of Energy",
          "body": "Explore the fascinating field of energy physics. Discuss various forms of energy, from mechanical to electrical, and delve into topics such as energy conservation, renewable energy sources, and the physics behind climate change."
        },
        {
          "title": "Physics",
          "subtitle": "Astrophysics and Cosmology",
          "body": "Embark on a cosmic journey through astrophysics and cosmology. Discuss the birth and evolution of the universe, the nature of black holes, and the search for extraterrestrial life. Share fascinating facts and theories about the cosmos."
        },
        {
          "title": "Chemistry",
          "subtitle": "Discovering the Magic of Chemical Reactions",
          "body": "Unleash your inner chemist. Discuss the properties of elements, compounds, and chemical reactions. Share interesting experiments or discuss the applications of chemistry in various fields, from medicine to industry."
        },
        {
          "title": "Chemistry",
          "subtitle": "Organic Chemistry",
          "body": "Dive into the world of organic chemistry. Discuss the structures and properties of organic compounds, reactions and mechanisms, and their importance in various fields such as pharmaceuticals, polymers, and agriculture."
        },
        {
          "title": "Chemistry",
          "subtitle": "Analytical Chemistry and Instrumentation",
          "body": "Explore the field of analytical chemistry and instrumentation. Discuss techniques such as spectroscopy, chromatography, and mass spectrometry used for chemical analysis. Share insights on their applications in research, forensic science, and environmental monitoring."
        },
        {
          "title": "History of Science",
          "subtitle": "Journey through Scientific Advancements",
          "body": "Embark on a journey through the history of scientific advancements. From ancient philosophers to modern-day pioneers, explore the contributions of scientists throughout the ages. Share notable discoveries or discuss the scientific method."
        },
        {
          "title": "History of Science",
          "subtitle": "Women in Science",
          "body": "Celebrate the achievements of women in science. Discuss the contributions of female scientists throughout history and their impact on various scientific fields. Share stories of resilience, breakthroughs, and the ongoing journey towards gender equality in STEM."
        },
        {
          "title": "History of Science",
          "subtitle": "Revolutionary Scientific Paradigms",
          "body": "Examine the shifts in scientific paradigms that have shaped our understanding of the world. From the Copernican revolution to the theory of evolution, discuss the transformative ideas that challenged established beliefs and led to scientific revolutions."
        }
      ]
    },
    {
      "topic_title": "Daily Lifestyle",
      "suggestions": [
        {
          "title": "Health and Wellness",
          "subtitle": "Maintaining a Healthy Lifestyle",
          "body": "Discuss tips and tricks for maintaining a healthy lifestyle. Share your favorite workouts, nutritious recipes, and self-care practices. Let's inspire each other to prioritize our well-being!"
        },
        {
          "title": "Health and Wellness",
          "subtitle": "Mental Health Matters",
          "body": "Open up about mental health and self-care. Share strategies for managing stress, fostering resilience, and promoting positive mental well-being. Let's support each other on our mental health journeys."
        },
        {
          "title": "Fashion and Style",
          "subtitle": "Trending Fashion Tips",
          "body": "Stay up-to-date with the latest fashion trends. Share fashion tips, style inspiration, and your favorite outfits. Let's celebrate personal style and express ourselves through fashion!"
        },
        {
          "title": "Fashion and Style",
          "subtitle": " Thrift Store Finds",
          "body": "Discover the thrill of thrifting! Share your best thrift store finds, upcycling projects, and sustainable fashion tips. Let's embrace eco-friendly fashion and redefine our wardrobes in creative ways."
        },
        {
          "title": "Home and Decor",
          "subtitle": "Interior Design Inspiration",
          "body": "Share your home decor ideas, DIY projects, and tips for creating a cozy and stylish living space. Let's explore interior design trends and transform our homes into havens of comfort and beauty."
        },
        {
          "title": "Home and Decor",
          "subtitle": "Organizing Hacks",
          "body": "Get organized and declutter your life! Share your favorite organizing hacks, storage solutions, and tips for maintaining a tidy and functional living space. Let's simplify our daily routines and create peaceful environments."
        },
        {
          "title": "Productivity",
          "subtitle": "Time Management Strategies",
          "body": "Discuss effective time management techniques and productivity hacks. Share tools, apps, and strategies that help you stay organized and make the most of your time. Let's boost our productivity together!"
        },
        {
          "title": "Productivity",
          "subtitle": "Goal Setting and Achieving",
          "body": "Set goals, track progress, and celebrate achievements! Share your goal-setting techniques, motivational tips, and success stories. Let's inspire each other to reach new heights and make our dreams a reality."
        },
        {
          "title": "Travel and Adventure",
          "subtitle": "Wanderlust Stories",
          "body": "Share your travel experiences, tips, and recommendations. From hidden gems to bucket list destinations, let's explore the world together through stories of adventure and wanderlust."
        },
        {
          "title": "Travel and Adventure",
          "subtitle": "Outdoor Escapades",
          "body": "Celebrate the beauty of nature and outdoor activities. Share your hiking adventures, camping trips, and favorite outdoor hobbies. Let's embrace the thrill of the great outdoors!"
        }
      ]
    },
    {
      "topic_title": "Health Nutrition",
      "suggestions": [
        {
          "title": "Healthy Eating Habits",
          "subtitle": "Nourishing Your Body",
          "body": "Explore the importance of healthy eating habits. Share nutritious recipes, meal prep ideas, and tips for making balanced food choices. Let's prioritize our health and well-being through proper nutrition!"
        },
        {
          "title": "Healthy Eating Habits",
          "subtitle": "Mindful Eating",
          "body": "Discover the benefits of mindful eating. Share techniques for savoring food, listening to your body's cues, and cultivating a positive relationship with food. Let's enjoy our meals with intention and gratitude!"
        },
        {
          "title": "Nutritional Science",
          "subtitle": "Unraveling Nutrient Facts",
          "body": "Dive into the world of nutritional science. Share insights on macronutrients, micronutrients, and their impact on our health. Let's discuss the latest research and separate fact from fiction!"
        },
        {
          "title": "Nutritional Science",
          "subtitle": "Superfoods and Their Benefits",
          "body": "Explore the world of superfoods and their potential health benefits. Share information about nutrient-dense foods, antioxidants, and functional ingredients. Let's uncover the power of these nutritional powerhouses!"
        },
        {
          "title": "Plant-Based Nutrition",
          "subtitle": "Embracing a Plant-Powered Lifestyle",
          "body": "Discuss the benefits of a plant-based diet. Share plant-based recipes, tips for transitioning to a vegan or vegetarian lifestyle, and insights into sustainable food choices. Let's nourish our bodies while reducing our environmental footprint!"
        },
        {
          "title": "Plant-Based Nutrition",
          "subtitle": "Protein Sources for Plant-Based Diets",
          "body": "Explore protein sources for those following a plant-based diet. Share information about legumes, tofu, tempeh, and other plant-based protein options. Let's ensure we meet our nutritional needs while enjoying a plant-powered lifestyle!"
        },
        {
          "title": "Gut Health",
          "subtitle": "Nurturing Your Microbiome",
          "body": "Delve into the world of gut health and the microbiome. Share tips for improving digestion, the benefits of probiotics and fermented foods, and the link between gut health and overall well-being. Let's prioritize our gut health!"
        },
        {
          "title": "Gut Health",
          "subtitle": "Prebiotics and Their Role",
          "body": "Explore the importance of prebiotics in supporting a healthy gut. Share information about prebiotic-rich foods, their benefits, and tips for incorporating them into your diet. Let's nurture our gut microbiome for optimal health!"
        },
        {
          "title": "Weight Management",
          "subtitle": "Maintaining a Healthy Weight",
          "body": "Discuss strategies for maintaining a healthy weight. Share tips for portion control, mindful eating, and incorporating physical activity into your routine. Let's support each other in achieving our weight management goals!"
        },
        {
          "title": "Weight Management",
          "subtitle": "Body Positivity and Self-Love",
          "body": "Celebrate body positivity and self-love. Share tips for developing a positive body image, practicing self-compassion, and focusing on overall well-being rather than external appearance. Let's embrace our bodies with love and acceptance!"
        }
      ]
    },
    {
      "topic_title": "Astrology",
      "suggestions": [
        {
          "title": "Zodiac Signs",
          "subtitle": "Discover Your Inner Self",
          "body": "Explore the traits and characteristics of each zodiac sign. Share your experiences and insights based on your astrological sign. Let's dive into the fascinating world of astrology!"
        },
        {
          "title": "Zodiac Signs",
          "subtitle": "Love and Relationships",
          "body": "Discuss the influence of astrology on love and relationships. Share compatibility insights, relationship advice based on zodiac signs, and personal stories. Let's explore the connections between astrology and matters of the heart!"
        },
        {
          "title": "Astrological Readings",
          "subtitle": "Personalized Horoscopes",
          "body": "Offer personalized horoscope readings based on individual birth charts. Share astrological predictions, insights, and guidance for each zodiac sign. Let's uncover the mysteries of the stars and provide astrological guidance!"
        },
        {
          "title": "Astrological Readings",
          "subtitle": "Career and Finances",
          "body": "Discuss the influence of astrology on career and financial decisions. Share insights into the zodiac signs' strengths, career paths, and tips for financial success. Let's explore the astrological aspects of professional and financial pursuits!"
        },
        {
          "title": "Astrology and Spirituality",
          "subtitle": "Cosmic Connections",
          "body": "Delve into the spiritual aspects of astrology. Share your experiences with astrology as a tool for self-discovery, personal growth, and connecting with the universe. Let's explore the cosmic connections that astrology can offer!"
        },
        {
          "title": "Astrology and Spirituality",
          "subtitle": "Astrological Healing ",
          "body": "Explore the healing aspects of astrology. Share insights into using astrology for self-reflection, emotional healing, and spiritual growth. Let's discuss how astrology can support our well-being on a deeper level!"
        },
        {
          "title": "Planetary Influences",
          "subtitle": "Power of the Planets",
          "body": "Discuss the influence of planetary movements on our lives. Share insights into retrogrades, planetary alignments, and their impact on astrology. Let's explore the powerful energies of the planets and their significance!"
        },
        {
          "title": "Planetary Influences",
          "subtitle": "Lunar Phases and Astrology",
          "body": "Explore the connection between lunar phases and astrology. Share insights into the influence of the moon on emotions, manifestations, and energy cycles. Let's harness the power of the moon in our astrological journey!"
        },
        {
          "title": "Astrological Myths and Legends",
          "subtitle": "Stories from the Cosmos",
          "body": "Share fascinating myths, legends, and folklore related to astrology. From ancient tales to cultural beliefs, let's explore the rich history and captivating stories surrounding astrology. "
        },
        {
          "title": "Astrological Myths and Legends",
          "subtitle": "Constellations and Mythology",
          "body": "Delve into the mythology behind constellations. Share stories of how celestial patterns were born and the tales that have been passed down through generations. Let's unravel the enchanting stories of the night sky!"
        }
      ]
    }    
  ]
}